[
  {"id":"auteur2022","author":[{"family":"Auteur","given":""}],"citation-key":"auteur2022","ISBN":"ISBN","issued":{"date-parts":[[2022]]},"language":"fr","publisher":"Éditeur","title":"Titre","type":"book"}
]
